\relax 
\providecommand\hyper@newdestlabel[2]{}
\citation{PAINER2016variation}
\citation{MAR}
\citation{nieuwenhuis-cremers-pami12_2}
\@writefile{toc}{\contentsline {chapter}{\numberline {1}Introduction}{1}{chapter.1}}
\@writefile{lof}{\addvspace {10\p@ }}
\@writefile{lot}{\addvspace {10\p@ }}
\@writefile{toc}{\contentsline {section}{\numberline {1.1}Motivation}{1}{section.1.1}}
\citation{nieuwenhuis-cremers-pami12_2}
\citation{Pock.2009}
\citation{nieuwenhuis-cremers-pami12_2}
\citation{grady2006random}
\citation{vese2002multiphase}
\citation{li2011integrating}
\citation{grady2005random}
\citation{gao1998deformable}
\@writefile{lof}{\contentsline {figure}{\numberline {1.1}{\ignorespaces Mini-laparoscopic liver images\relax }}{2}{figure.caption.8}}
\providecommand*\caption@xref[2]{\@setref\relax\@undefined{#1}}
\newlabel{fig:liver_examples}{{1.1}{2}{Mini-laparoscopic liver images\relax }{figure.caption.8}{}}
\newlabel{fig:liver_examples@cref}{{[figure][1][1]1.1}{2}}
\@writefile{toc}{\contentsline {section}{\numberline {1.2}Task Description}{2}{section.1.2}}
\citation{Bauch.2012}
\citation{nieuwenhuis-cremers-pami12_2}
\citation{Nieuwenhuis.2013c}
\citation{CUDA}
\@writefile{toc}{\contentsline {section}{\numberline {1.3}Related Work}{3}{section.1.3}}
\@setckpt{chapters/1_Introduction}{
\setcounter{page}{4}
\setcounter{equation}{0}
\setcounter{enumi}{0}
\setcounter{enumii}{0}
\setcounter{enumiii}{0}
\setcounter{enumiv}{0}
\setcounter{footnote}{0}
\setcounter{mpfootnote}{0}
\setcounter{part}{0}
\setcounter{chapter}{1}
\setcounter{section}{3}
\setcounter{subsection}{0}
\setcounter{subsubsection}{0}
\setcounter{paragraph}{0}
\setcounter{subparagraph}{0}
\setcounter{figure}{1}
\setcounter{table}{0}
\setcounter{parentequation}{0}
\setcounter{float@type}{8}
\setcounter{Item}{0}
\setcounter{Hfootnote}{0}
\setcounter{bookmark@seq@number}{6}
\setcounter{algorithm}{0}
\setcounter{ContinuedFloat}{0}
\setcounter{FancyVerbLine}{0}
\setcounter{ALG@line}{0}
\setcounter{ALG@rem}{0}
\setcounter{ALG@nested}{0}
\setcounter{ALG@Lnr}{2}
\setcounter{ALG@blocknr}{10}
\setcounter{ALG@storecount}{0}
\setcounter{ALG@tmpcounter}{0}
\setcounter{mn@abspage}{13}
\setcounter{currfiledepth}{0}
\setcounter{subfigure}{0}
\setcounter{subtable}{0}
\setcounter{algorithmicH}{0}
\setcounter{section@level}{1}
}
