\begin{tikzpicture}

\draw [thin, fill=lightgray] (0,0) to (1,0) to (0.5,0.866) to (0,0);

\draw [fill] (0,0) circle [radius=0.03];
\draw [fill] (1,0) circle [radius=0.03];
\draw [fill] (0.5,0.866) circle [radius=0.03];


\end{tikzpicture}

