\relax 
\providecommand\hyper@newdestlabel[2]{}
\providecommand\HyperFirstAtBeginDocument{\AtBeginDocument}
\HyperFirstAtBeginDocument{\ifx\hyper@anchor\@undefined
\global\let\oldcontentsline\contentsline
\gdef\contentsline#1#2#3#4{\oldcontentsline{#1}{#2}{#3}}
\global\let\oldnewlabel\newlabel
\gdef\newlabel#1#2{\newlabelxx{#1}#2}
\gdef\newlabelxx#1#2#3#4#5#6{\oldnewlabel{#1}{{#2}{#3}}}
\AtEndDocument{\ifx\hyper@anchor\@undefined
\let\contentsline\oldcontentsline
\let\newlabel\oldnewlabel
\fi}
\fi}
\global\let\hyper@last\relax 
\gdef\HyperFirstAtBeginDocument#1{#1}
\providecommand\HyField@AuxAddToFields[1]{}
\providecommand\HyField@AuxAddToCoFields[2]{}
\abx@aux@sortscheme{nyt}
\@writefile{toc}{\boolfalse {citerequest}\boolfalse {citetracker}\boolfalse {pagetracker}\boolfalse {backtracker}\relax }
\@writefile{lof}{\boolfalse {citerequest}\boolfalse {citetracker}\boolfalse {pagetracker}\boolfalse {backtracker}\relax }
\@writefile{lot}{\boolfalse {citerequest}\boolfalse {citetracker}\boolfalse {pagetracker}\boolfalse {backtracker}\relax }
\@writefile{toc}{\defcounter {refsection}{0}\relax }\@writefile{toc}{\beamer@endinputifotherversion {3.36pt}}
\@writefile{nav}{\defcounter {refsection}{0}\relax }\@writefile{nav}{\beamer@endinputifotherversion {3.36pt}}
\@writefile{nav}{\headcommand {\slideentry {0}{0}{1}{1/1}{}{0}}}
\@writefile{nav}{\headcommand {\beamer@framepages {1}{1}}}
\@writefile{nav}{\headcommand {\slideentry {0}{0}{2}{2/2}{}{0}}}
\@writefile{nav}{\headcommand {\beamer@framepages {2}{2}}}
\@writefile{toc}{\beamer@sectionintoc {1}{Overview}{3}{0}{1}}
\@writefile{nav}{\headcommand {\sectionentry {1}{Overview}{3}{Overview}{0}}}
\@writefile{nav}{\headcommand {\beamer@sectionpages {1}{2}}}
\@writefile{nav}{\headcommand {\beamer@subsectionpages {1}{2}}}
\@writefile{nav}{\headcommand {\slideentry {1}{0}{1}{3/3}{}{0}}}
\@writefile{nav}{\headcommand {\beamer@framepages {3}{3}}}
\@writefile{nav}{\headcommand {\slideentry {1}{0}{2}{4/5}{}{0}}}
\@writefile{nav}{\headcommand {\beamer@framepages {4}{5}}}
\newlabel{table_util}{{3}{6}{Overview}{Doc-Start}{}}
\@writefile{snm}{\beamer@slide {table_util}{6}}
\@writefile{nav}{\headcommand {\slideentry {1}{0}{3}{6/8}{}{0}}}
\@writefile{nav}{\headcommand {\beamer@framepages {6}{8}}}
\newlabel{table_util}{{4}{9}{Overview}{Doc-Start}{}}
\@writefile{snm}{\beamer@slide {table_util}{9}}
\newlabel{fig_adtimes}{{4}{9}{Overview}{Doc-Start}{}}
\@writefile{snm}{\beamer@slide {fig_adtimes}{9}}
\@writefile{nav}{\headcommand {\slideentry {1}{0}{4}{9/12}{}{0}}}
\@writefile{nav}{\headcommand {\beamer@framepages {9}{12}}}
\@writefile{nav}{\headcommand {\slideentry {1}{0}{5}{13/16}{}{0}}}
\@writefile{nav}{\headcommand {\beamer@framepages {13}{16}}}
\@writefile{toc}{\beamer@sectionintoc {2}{Rate Monotonic Scheduling}{17}{0}{2}}
\@writefile{nav}{\headcommand {\sectionentry {2}{Rate Monotonic Scheduling}{17}{Rate Monotonic Scheduling}{0}}}
\@writefile{nav}{\headcommand {\beamer@sectionpages {3}{16}}}
\@writefile{nav}{\headcommand {\beamer@subsectionpages {3}{16}}}
\@writefile{nav}{\headcommand {\slideentry {2}{0}{1}{17/17}{}{0}}}
\@writefile{nav}{\headcommand {\beamer@framepages {17}{17}}}
\@writefile{nav}{\headcommand {\slideentry {2}{0}{2}{18/19}{}{0}}}
\@writefile{nav}{\headcommand {\beamer@framepages {18}{19}}}
\newlabel{table_util_geq_limit}{{7}{20}{Rate Monotonic Scheduling}{Doc-Start}{}}
\@writefile{snm}{\beamer@slide {table_util_geq_limit}{20}}
\@writefile{nav}{\headcommand {\slideentry {2}{0}{3}{20/22}{}{0}}}
\@writefile{nav}{\headcommand {\beamer@framepages {20}{22}}}
\newlabel{table_rms_util}{{8}{23}{Rate Monotonic Scheduling}{Doc-Start}{}}
\@writefile{snm}{\beamer@slide {table_rms_util}{23}}
\@writefile{nav}{\headcommand {\slideentry {2}{0}{4}{23/24}{}{0}}}
\@writefile{nav}{\headcommand {\beamer@framepages {23}{24}}}
\newlabel{table_util_geq_limit}{{9}{25}{Rate Monotonic Scheduling}{Doc-Start}{}}
\@writefile{snm}{\beamer@slide {table_util_geq_limit}{25}}
\newlabel{fig_rr}{{9}{25}{Rate Monotonic Scheduling}{Doc-Start}{}}
\@writefile{snm}{\beamer@slide {fig_rr}{25}}
\@writefile{nav}{\headcommand {\slideentry {2}{0}{5}{25/37}{}{0}}}
\@writefile{nav}{\headcommand {\beamer@framepages {25}{37}}}
\@writefile{nav}{\headcommand {\slideentry {2}{0}{6}{38/38}{}{0}}}
\@writefile{nav}{\headcommand {\beamer@framepages {38}{38}}}
\@writefile{toc}{\beamer@sectionintoc {3}{Earliest Deadline First}{39}{0}{3}}
\@writefile{nav}{\headcommand {\sectionentry {3}{Earliest Deadline First}{39}{Earliest Deadline First}{0}}}
\@writefile{nav}{\headcommand {\beamer@sectionpages {17}{38}}}
\@writefile{nav}{\headcommand {\beamer@subsectionpages {17}{38}}}
\@writefile{nav}{\headcommand {\slideentry {3}{0}{1}{39/39}{}{0}}}
\@writefile{nav}{\headcommand {\beamer@framepages {39}{39}}}
\@writefile{nav}{\headcommand {\slideentry {3}{0}{2}{40/41}{}{0}}}
\@writefile{nav}{\headcommand {\beamer@framepages {40}{41}}}
\@writefile{nav}{\headcommand {\slideentry {3}{0}{3}{42/42}{}{0}}}
\@writefile{nav}{\headcommand {\beamer@framepages {42}{42}}}
\newlabel{table_edf2}{{13}{43}{Earliest Deadline First}{Doc-Start}{}}
\@writefile{snm}{\beamer@slide {table_edf2}{43}}
\newlabel{fig_edf_ex2}{{13}{43}{Earliest Deadline First}{Doc-Start}{}}
\@writefile{snm}{\beamer@slide {fig_edf_ex2}{43}}
\@writefile{nav}{\headcommand {\slideentry {3}{0}{4}{43/50}{}{0}}}
\@writefile{nav}{\headcommand {\beamer@framepages {43}{50}}}
\newlabel{table_edf_ex1}{{14}{51}{Earliest Deadline First}{Doc-Start}{}}
\@writefile{snm}{\beamer@slide {table_edf_ex1}{51}}
\newlabel{fig_edf_ex1}{{14}{51}{Earliest Deadline First}{Doc-Start}{}}
\@writefile{snm}{\beamer@slide {fig_edf_ex1}{51}}
\@writefile{nav}{\headcommand {\slideentry {3}{0}{5}{51/55}{}{0}}}
\@writefile{nav}{\headcommand {\beamer@framepages {51}{55}}}
\@writefile{nav}{\headcommand {\slideentry {3}{0}{6}{56/56}{}{0}}}
\@writefile{nav}{\headcommand {\beamer@framepages {56}{56}}}
\@writefile{toc}{\beamer@sectionintoc {4}{Comparison}{57}{0}{4}}
\@writefile{nav}{\headcommand {\sectionentry {4}{Comparison}{57}{Comparison}{0}}}
\@writefile{nav}{\headcommand {\beamer@sectionpages {39}{56}}}
\@writefile{nav}{\headcommand {\beamer@subsectionpages {39}{56}}}
\@writefile{nav}{\headcommand {\slideentry {4}{0}{1}{57/57}{}{0}}}
\@writefile{nav}{\headcommand {\beamer@framepages {57}{57}}}
\@writefile{nav}{\headcommand {\slideentry {4}{0}{2}{58/62}{}{0}}}
\@writefile{nav}{\headcommand {\beamer@framepages {58}{62}}}
\@writefile{nav}{\headcommand {\slideentry {4}{0}{3}{63/63}{}{0}}}
\@writefile{nav}{\headcommand {\beamer@framepages {63}{63}}}
\@writefile{nav}{\headcommand {\beamer@partpages {1}{63}}}
\@writefile{nav}{\headcommand {\beamer@subsectionpages {57}{63}}}
\@writefile{nav}{\headcommand {\beamer@sectionpages {57}{63}}}
\@writefile{nav}{\headcommand {\beamer@documentpages {63}}}
\@writefile{nav}{\headcommand {\def \inserttotalframenumber {17}}}
