\BOOKMARK [2][]{Outline0.1}{Overview}{}% 1
\BOOKMARK [2][]{Outline0.2}{Rate Monotonic Scheduling}{}% 2
\BOOKMARK [2][]{Outline0.3}{Earliest Deadline First}{}% 3
\BOOKMARK [2][]{Outline0.4}{Comparison}{}% 4
