\relax 
\providecommand\hyper@newdestlabel[2]{}
\providecommand\zref@newlabel[2]{}
\providecommand\HyperFirstAtBeginDocument{\AtBeginDocument}
\HyperFirstAtBeginDocument{\ifx\hyper@anchor\@undefined
\global\let\oldcontentsline\contentsline
\gdef\contentsline#1#2#3#4{\oldcontentsline{#1}{#2}{#3}}
\global\let\oldnewlabel\newlabel
\gdef\newlabel#1#2{\newlabelxx{#1}#2}
\gdef\newlabelxx#1#2#3#4#5#6{\oldnewlabel{#1}{{#2}{#3}}}
\AtEndDocument{\ifx\hyper@anchor\@undefined
\let\contentsline\oldcontentsline
\let\newlabel\oldnewlabel
\fi}
\fi}
\global\let\hyper@last\relax 
\gdef\HyperFirstAtBeginDocument#1{#1}
\providecommand\HyField@AuxAddToFields[1]{}
\providecommand\HyField@AuxAddToCoFields[2]{}
\providecommand\AtEndDvi@Check{}
\AtEndDvi@Check
\@writefile{toc}{\beamer@endinputifotherversion {3.36pt}}
\@writefile{nav}{\beamer@endinputifotherversion {3.36pt}}
\@writefile{nav}{\headcommand {\slideentry {0}{0}{1}{1/1}{}{0}}}
\@writefile{nav}{\headcommand {\beamer@framepages {1}{1}}}
\@writefile{nav}{\headcommand {\slideentry {0}{0}{2}{2/2}{}{0}}}
\@writefile{nav}{\headcommand {\beamer@framepages {2}{2}}}
\@writefile{toc}{\beamer@sectionintoc {1}{Introduction}{3}{0}{1}}
\@writefile{nav}{\headcommand {\sectionentry {1}{Introduction}{3}{Introduction}{0}}}
\@writefile{nav}{\headcommand {\beamer@sectionpages {1}{2}}}
\@writefile{nav}{\headcommand {\beamer@subsectionpages {1}{2}}}
\@writefile{nav}{\headcommand {\slideentry {1}{0}{1}{3/3}{}{0}}}
\@writefile{nav}{\headcommand {\beamer@framepages {3}{3}}}
\@writefile{nav}{\headcommand {\slideentry {1}{0}{2}{4/4}{}{0}}}
\@writefile{nav}{\headcommand {\beamer@framepages {4}{4}}}
\citation{nieuwenhuis-cremers-pami12_2}
\@writefile{nav}{\headcommand {\slideentry {1}{0}{3}{5/5}{}{0}}}
\@writefile{nav}{\headcommand {\beamer@framepages {5}{5}}}
\citation{Santner2010}
\citation{Santner2010}
\@writefile{nav}{\headcommand {\slideentry {1}{0}{4}{6/7}{}{0}}}
\@writefile{nav}{\headcommand {\beamer@framepages {6}{7}}}
\@writefile{toc}{\beamer@sectionintoc {2}{Segmentation Algorithm}{8}{0}{2}}
\@writefile{nav}{\headcommand {\sectionentry {2}{Segmentation Algorithm}{8}{Segmentation Algorithm}{0}}}
\@writefile{nav}{\headcommand {\beamer@sectionpages {3}{7}}}
\@writefile{nav}{\headcommand {\beamer@subsectionpages {3}{7}}}
\@writefile{nav}{\headcommand {\slideentry {2}{0}{1}{8/8}{}{0}}}
\@writefile{nav}{\headcommand {\beamer@framepages {8}{8}}}
\@writefile{nav}{\headcommand {\slideentry {2}{0}{2}{9/10}{}{0}}}
\@writefile{nav}{\headcommand {\beamer@framepages {9}{10}}}
\@writefile{nav}{\headcommand {\slideentry {2}{0}{3}{11/12}{}{0}}}
\@writefile{nav}{\headcommand {\beamer@framepages {11}{12}}}
\@writefile{nav}{\headcommand {\slideentry {2}{0}{4}{13/13}{}{0}}}
\@writefile{nav}{\headcommand {\beamer@framepages {13}{13}}}
\citation{nadaraya1965non}
\citation{nadaraya1965non}
\citation{nadaraya1965non}
\citation{nadaraya1965non}
\citation{nadaraya1965non}
\@writefile{nav}{\headcommand {\slideentry {2}{0}{5}{14/18}{}{0}}}
\@writefile{nav}{\headcommand {\beamer@framepages {14}{18}}}
\@writefile{nav}{\headcommand {\slideentry {2}{0}{6}{19/20}{}{0}}}
\@writefile{nav}{\headcommand {\beamer@framepages {19}{20}}}
\@writefile{nav}{\headcommand {\slideentry {2}{0}{7}{21/22}{}{0}}}
\@writefile{nav}{\headcommand {\beamer@framepages {21}{22}}}
\@writefile{nav}{\headcommand {\slideentry {2}{0}{8}{23/23}{}{0}}}
\@writefile{nav}{\headcommand {\beamer@framepages {23}{23}}}
\citation{Pock.2009}
\citation{Pock.2009}
\citation{Pock.2009}
\@writefile{nav}{\headcommand {\slideentry {2}{0}{9}{24/26}{}{0}}}
\@writefile{nav}{\headcommand {\beamer@framepages {24}{26}}}
\newlabel{img:algorithmOverview}{{13}{27}{Segmentation Algorithm}{Doc-Start}{}}
\@writefile{snm}{\beamer@slide {img:algorithmOverview}{27}}
\@writefile{nav}{\headcommand {\slideentry {2}{0}{10}{27/31}{}{0}}}
\@writefile{nav}{\headcommand {\beamer@framepages {27}{31}}}
\newlabel{figureLabel}{{4}{32}{Segmentation Algorithm}{Doc-Start}{}}
\@writefile{snm}{\beamer@slide {figureLabel}{32}}
\@writefile{nav}{\headcommand {\slideentry {2}{0}{11}{32/32}{}{0}}}
\@writefile{nav}{\headcommand {\beamer@framepages {32}{32}}}
\@writefile{nav}{\headcommand {\slideentry {2}{0}{12}{33/34}{}{0}}}
\@writefile{nav}{\headcommand {\beamer@framepages {33}{34}}}
\@writefile{toc}{\beamer@sectionintoc {3}{Results}{35}{0}{3}}
\@writefile{nav}{\headcommand {\sectionentry {3}{Results}{35}{Results}{0}}}
\@writefile{nav}{\headcommand {\beamer@sectionpages {8}{34}}}
\@writefile{nav}{\headcommand {\beamer@subsectionpages {8}{34}}}
\@writefile{nav}{\headcommand {\slideentry {3}{0}{1}{35/35}{}{0}}}
\@writefile{nav}{\headcommand {\beamer@framepages {35}{35}}}
\@writefile{nav}{\headcommand {\slideentry {3}{0}{2}{36/36}{}{0}}}
\@writefile{nav}{\headcommand {\beamer@framepages {36}{36}}}
\@writefile{nav}{\headcommand {\slideentry {3}{0}{3}{37/37}{}{0}}}
\@writefile{nav}{\headcommand {\beamer@framepages {37}{37}}}
\@writefile{nav}{\headcommand {\slideentry {3}{0}{4}{38/38}{}{0}}}
\@writefile{nav}{\headcommand {\beamer@framepages {38}{38}}}
\@writefile{nav}{\headcommand {\slideentry {3}{0}{5}{39/39}{}{0}}}
\@writefile{nav}{\headcommand {\beamer@framepages {39}{39}}}
\newlabel{fig:wrongscribbles}{{9}{40}{Results}{Doc-Start}{}}
\@writefile{snm}{\beamer@slide {fig:wrongscribbles}{40}}
\@writefile{nav}{\headcommand {\slideentry {3}{0}{6}{40/40}{}{0}}}
\@writefile{nav}{\headcommand {\beamer@framepages {40}{40}}}
\citation{Santner2010}
\@writefile{nav}{\headcommand {\slideentry {3}{0}{7}{41/41}{}{0}}}
\@writefile{nav}{\headcommand {\beamer@framepages {41}{41}}}
\@writefile{nav}{\headcommand {\slideentry {3}{0}{8}{42/42}{}{0}}}
\@writefile{nav}{\headcommand {\beamer@framepages {42}{42}}}
\@writefile{nav}{\headcommand {\slideentry {3}{0}{9}{43/43}{}{0}}}
\@writefile{nav}{\headcommand {\beamer@framepages {43}{43}}}
\@writefile{toc}{\beamer@sectionintoc {4}{Conclusions and Outlook}{44}{0}{4}}
\@writefile{nav}{\headcommand {\sectionentry {4}{Conclusions and Outlook}{44}{Conclusions and Outlook}{0}}}
\@writefile{nav}{\headcommand {\beamer@sectionpages {35}{43}}}
\@writefile{nav}{\headcommand {\beamer@subsectionpages {35}{43}}}
\@writefile{nav}{\headcommand {\slideentry {4}{0}{1}{44/44}{}{0}}}
\@writefile{nav}{\headcommand {\beamer@framepages {44}{44}}}
\@writefile{nav}{\headcommand {\slideentry {4}{0}{2}{45/45}{}{0}}}
\@writefile{nav}{\headcommand {\beamer@framepages {45}{45}}}
\@writefile{nav}{\headcommand {\slideentry {4}{0}{3}{46/46}{}{0}}}
\@writefile{nav}{\headcommand {\beamer@framepages {46}{46}}}
\@writefile{nav}{\headcommand {\slideentry {4}{0}{4}{47/47}{}{0}}}
\@writefile{nav}{\headcommand {\beamer@framepages {47}{47}}}
\@writefile{nav}{\headcommand {\partentry {\translate  {Appendix}}{1}}}
\@writefile{nav}{\headcommand {\beamer@partpages {1}{47}}}
\@writefile{nav}{\headcommand {\beamer@sectionpages {44}{47}}}
\@writefile{nav}{\headcommand {\beamer@subsectionpages {44}{47}}}
\@writefile{nav}{\headcommand {\beamer@appendixpages {48}}}
\@writefile{nav}{\headcommand {\slideentry {4}{0}{5}{48/49}{}{1}}}
\@writefile{nav}{\headcommand {\beamer@framepages {48}{49}}}
\@writefile{nav}{\headcommand {\slideentry {4}{0}{6}{50/50}{}{1}}}
\@writefile{nav}{\headcommand {\beamer@framepages {50}{50}}}
\newlabel{fig:wrongscribbles}{{13}{51}{Conclusions and Outlook}{Doc-Start}{}}
\@writefile{snm}{\beamer@slide {fig:wrongscribbles}{51}}
\@writefile{nav}{\headcommand {\slideentry {4}{0}{7}{51/51}{}{1}}}
\@writefile{nav}{\headcommand {\beamer@framepages {51}{51}}}
\@writefile{snm}{\beamer@slide {eq:primdual}{52}}
\newlabel{eq:primdual}{{1a}{52}{Conclusions and Outlook}{Doc-Start}{}}
\@writefile{nav}{\headcommand {\slideentry {4}{0}{8}{52/52}{}{1}}}
\@writefile{nav}{\headcommand {\beamer@framepages {52}{52}}}
\@writefile{nav}{\headcommand {\slideentry {4}{0}{9}{53/53}{}{1}}}
\@writefile{nav}{\headcommand {\beamer@framepages {53}{53}}}
\newlabel{fig:sweep_sigma}{{14}{54}{Conclusions and Outlook}{Doc-Start}{}}
\@writefile{snm}{\beamer@slide {fig:sweep_sigma}{54}}
\@writefile{nav}{\headcommand {\slideentry {4}{0}{10}{54/54}{}{1}}}
\@writefile{nav}{\headcommand {\beamer@framepages {54}{54}}}
\bibstyle{alpha}
\bibdata{masterbib}
\bibcite{nadaraya1965non}{\hyperlink {beamerbibnadaraya1965non}{Nad65}}
\bibcite{nieuwenhuis-cremers-pami12_2}{\hyperlink {beamerbibnieuwenhuis-cremers-pami12_2}{NC13}}
\bibcite{Pock.2009}{\hyperlink {beamerbibPock.2009}{PCBC09}}
\bibcite{Santner2010}{\hyperlink {beamerbibSantner2010}{SPB10}}
\@writefile{nav}{\headcommand {\slideentry {4}{0}{11}{55/55}{}{1}}}
\@writefile{nav}{\headcommand {\beamer@framepages {55}{55}}}
\@writefile{nav}{\headcommand {\slideentry {4}{0}{11}{55/56}{}{1}}}
\@writefile{nav}{\headcommand {\beamer@framepages {55}{56}}}
\@writefile{nav}{\headcommand {\beamer@partpages {48}{56}}}
\@writefile{nav}{\headcommand {\beamer@subsectionpages {48}{56}}}
\@writefile{nav}{\headcommand {\beamer@sectionpages {48}{56}}}
\@writefile{nav}{\headcommand {\beamer@documentpages {56}}}
\@writefile{nav}{\headcommand {\def \inserttotalframenumber {27}}}
\zref@newlabel{LastPage}{\default{27}\page{56}\abspage{56}}
