\BOOKMARK [2][]{Outline0.1}{Introduction}{}% 1
\BOOKMARK [2][]{Outline0.2}{Segmentation Algorithm}{}% 2
\BOOKMARK [2][]{Outline0.3}{Results}{}% 3
\BOOKMARK [2][]{Outline0.4}{Conclusions and Outlook}{}% 4
\BOOKMARK [1][]{Outline1}{Appendix}{}% 5
