\beamer@endinputifotherversion {3.36pt}
\beamer@sectionintoc {1}{Introduction}{3}{0}{1}
\beamer@sectionintoc {2}{Segmentation Algorithm}{8}{0}{2}
\beamer@sectionintoc {3}{Results}{35}{0}{3}
\beamer@sectionintoc {4}{Conclusions and Outlook}{44}{0}{4}
